{
	"title": "The Origins of MicroBlocks",
	"author": "John Maloney",
	"author-link": "https://microblocks.fun/about",
	"organization": "MicroBlocks",
	"organization-link": "https://microblocks.fun",
	"thumbnail-copyright": "Seattle photo by Daniel Schwen, CC BY-SA 4.0",
	"last-update": "2022-12-21"
}
