{
    "installers":[
        {
            "platform":"Windows",
            "href":"https://microblocks.fun/downloads/latest/packages/microBlocks%20setup.exe"
        },
        {
            "platform":"Mac OS",
            "href":"https://microblocks.fun/downloads/latest/packages/MicroBlocks.app.zip"
        },
        {
            "platform":"Raspberry Pi (Raspbian)",
            "href":"https://microblocks.fun/downloads/latest/packages/ublocks-armhf.deb"
        },
        {
            "platform":"Linux (64 bit)",
            "href":"https://microblocks.fun/downloads/latest/packages/ublocks-amd64.deb"
        },
        {
            "platform":"Linux (32 bit)",
            "href":"https://microblocks.fun/downloads/latest/packages/ublocks-i386.deb"
        }
    ],
    "standalone":[
        {
            "platform":"Windows",
            "href":"https://microblocks.fun/downloads/latest/standalone/ublocks-win.zip"
        },
        {
            "platform":"Linux, 64-bit",
            "href":"https://microblocks.fun/downloads/latest/standalone/ublocks-linux64bit.zip"
        },
        {
            "platform":"Linux, 32-bit",
            "href":"https://microblocks.fun/downloads/latest/standalone/ublocks-linux32bit.zip"
        },
        {
            "platform":"Raspberry Pi",
            "href":"https://microblocks.fun/downloads/latest/standalone/ublocks-raspberryPi.zip"
        }
    ],
    "vm":[
        {
            "platform":"BBC micro:bit",
            "href":"https://microblocks.fun/downloads/latest/vm/vm_microbit-universal.hex"
        },
        {
            "platform":"Calliope",
            "href":"https://microblocks.fun/downloads/latest/vm/vm_calliope-universal.hex"
        },
        {
            "platform":"Citilab ED1",
            "href":"https://microblocks.fun/downloads/latest/vm/vm_citilab-ed1.bin"
        },
        {
            "platform":"Elecfreaks Pico:ed",
            "href":"https://microblocks.fun/downloads/latest/vm/vm_pico_ed.uf2"
        },
        {
            "platform":"Raspberry Pi Pico",
            "href":"https://microblocks.fun/downloads/latest/vm/vm_pico_w.uf2"
        },
        {
            "platform":"Adafruit Circuit Playground Express",
            "href":"https://microblocks.fun/downloads/latest/vm/vm_circuitplay.uf2"
        },
        {
            "platform":"Adafruit Circuit Playground Bluefruit",
            "href":"https://microblocks.fun/downloads/latest/vm/vm_cplay52.uf2"
        },
        {
            "platform":"Adafruit Clue",
            "href":"https://microblocks.fun/downloads/latest/vm/vm_clue.uf2"
        },
        {
            "platform":"Adafruit Metro M0",
            "href":"https://microblocks.fun/downloads/latest/vm/vm_metroM0.uf2"
        },
        {
            "platform":"M5Stack",
            "href":"https://microblocks.fun/downloads/latest/vm/vm_m5stack.bin"
        },
        {
            "platform":"Generic ESP32",
            "href":"https://microblocks.fun/downloads/latest/vm/vm_esp32.bin"
        },
        {
            "platform":"NodeMCU (ESP8266)",
            "href":"https://microblocks.fun/downloads/latest/vm/vm_nodemcu.bin"
        }
    ]
}
