{
    "version": "v1.0.0",

    "entity": {
        "type": "group",
        "role": "owner",
        "name": "MicroBlocks",
        "email": "interest@microblocks.fun",
        "phone": "",
        "description": "MicroBlocks is a free VM-based programming language for microcontrollers, with a graphical programming environment inspired in the Scratch and Snap! educational languages, and a virtual machine inspired in the Squeak Smalltalk-80 virtual machine. The MicroBlocks project is part of the Software Freedom Conservancy, through which it can receive funding and donations.",
        "webpageUrl": {
            "url": "https://microblocks.fun"
        }
    },

    "projects": [{
        "guid": "microblocks",
        "name": "MicroBlocks",
        "description": "MicroBlocks is a free VM-based programming language for microcontrollers, with a graphical programming environment inspired in the Scratch and Snap! educational languages, and a virtual machine inspired in the Squeak Smalltalk-80 virtual machine.",
        "webpageUrl": {
            "url": "https://microblocks.fun"
        },
        "repositoryUrl": {
            "url": "https://bitbucket.org/john_maloney/smallvm/",
            "wellKnown": "https://bitbucket.org/john_maloney/smallvm/raw/a747e1d9b708a76926949b18ae3026ecd2089941/misc/.well-known/funding-manifest-urls"
        },
        "licenses": ["spdx:MPL-2.0"],
        "tags": ["programming", "education", "internet-of-things", "microcontrollers"]
    }],

    "funding": {
        "channels": [{
            "guid": "sfc-paypal",
            "type": "payment-provider",
            "description": "https://www.paypal.com/donate?token=b2GgYG7w_ZkUodQVudJTuF0M0nwhQ7TXzHuatJjW6kYAhAzXGNpoEY-zIdAD1ngybWGs5T6BgPkbruad"
        }],

        "plans": [{
            "guid": "developer-time",
            "status": "active",
            "name": "Development support plan",
            "description": "Full-time contract for one software developer.",
            "amount": 80000,
            "currency": "USD",
            "frequency": "yearly",
            "channels": ["sfc-paypal"]
        }],

        "history": [
            {
                "year": 2020,
                "income": 14215.74,
                "expenses": 6963.53,
                "currency": "USD",
                "description": "Donations received through the Software Freedom Conservancy. Spent on software development."
            },
            {
                "year": 2021,
                "income": 0,
                "expenses": 6000.0,
                "currency": "USD",
                "description": "Balance from previous years. Spent on graphic design for the new project website and learning assets website."
            },
            {
                "year": 2022,
                "income": 0,
                "expenses": 2721.20,
                "currency": "USD",
                "description": "Balance from previous years. Spent on graphic design for the learning assets website, plus hardware sponsorship for teacher professional development workshops."
            },
            {
                "year": 2023,
                "income": 14409.0,
                "expenses": 5320.69,
                "currency": "USD",
                "description": "Donations received through the Software Freedom Conservancy. Mainly spent on graphic design for the learning assets website and the new IDE (v2.0)."
            },
            {
                "year": 2024,
                "income": 0,
                "expenses": 0,
                "currency": "USD",
                "description": "A contract is underway to pay a graphic designer to ultimate details of the new IDE (v2.0), while the rest of the team works on software development, documentation and teacher development either in a volunteer basis or on allowed time by their work contracts."
            }
        ]
    }
}
